<div class="row pad-top-60 pad-bottom-60">
    <div class="wrapper">
        <h1>CONTACT</h1>
        <div class="row contact-form">
            <hr class="row space-top-15 space-bottom-15">
            <div class="alert-area"></div>
            <form id="contact-form" class="row">
                <div class="row space-bottom-15 name">
                    <label for="name">Name</label>
                    <input type="text" name="name" id="name" class="row required" required>
                </div>
                <div class="row space-bottom-15 firstname">
                    <label for="firstname">First Name</label>
                    <input type="text" name="firstname" id="firstname" class="row required" required>
                </div>
                <div class="row space-bottom-15 lastname">
                    <label for="lastname">Last Name</label>
                    <input type="text" name="lastname" id="lastname" class="row required" required>
                </div>
                <div class="row space-bottom-15 company">
                    <label for="company">Company</label>
                    <input type="text" name="company" id="company" class="row required" required>
                </div>
                <div class="row space-bottom-15 phone">
                    <label for="phone">Phone</label>
                    <input type="text" name="phone" id="phone" class="row required" required>
                </div>
                <div class="row space-bottom-15 fax">
                    <label for="fax">Fax</label>
                    <input type="text" name="fax" id="fax" class="row required" required>
                </div>
                <div class="row space-bottom-15 address">
                    <label for="address">Address</label>
                    <input type="text" name="address" id="address" class="row required" required>
                </div>
                <div class="row space-bottom-15 website">
                    <label for="website">Website</label>
                    <input type="url" name="website" id="website" class="row required" required>
                </div>
                <div class="row space-bottom-15 date">
                    <label for="date">Date</label>
                    <input type="date" name="date" id="date" class="row required" required>
                </div>
                <div class="row space-bottom-15 time">
                    <label for="time" class="row">Time</label>
                    <select name="time" class="required" required>
                        <option></option>
                        <option value="12:00AM">12:00AM</option>
                        <option value="1:00AM">1:00AM</option>
                        <option value="2:00AM">2:00AM</option>
                        <option value="3:00AM">3:00AM</option>
                        <option value="4:00AM">4:00AM</option>
                        <option value="5:00AM">5:00AM</option>
                        <option value="6:00AM">6:00AM</option>
                        <option value="7:00AM">7:00AM</option>
                        <option value="8:00AM">8:00AM</option>
                        <option value="9:00AM">9:00AM</option>
                        <option value="10:00AM">10:00AM</option>
                        <option value="11:00AM">11:00AM</option>
                        <option value="12:00PM">12:00PM</option>
                        <option value="1:00PM">1:00PM</option>
                        <option value="2:00PM">2:00PM</option>
                        <option value="3:00PM">3:00PM</option>
                        <option value="4:00PM">4:00PM</option>
                        <option value="5:00PM">5:00PM</option>
                        <option value="6:00PM">6:00PM</option>
                        <option value="7:00PM">7:00PM</option>
                        <option value="8:00PM">8:00PM</option>
                        <option value="9:00PM">9:00PM</option>
                        <option value="10:00PM">10:00PM</option>
                        <option value="11:00PM">11:00PM</option>
                    </select>
                </div>
                <div class="row space-bottom-15 email">
                    <label for="email">Email</label>
                    <input type="email" name="email" id="email" class="row required" required>
                </div>
                <div class="row space-bottom-15 subject">
                    <label for="subject">Subject</label>
                    <input type="text" name="subject" id="subject" class="row required" required>
                </div>
                <div class="row space-bottom-15">
                    <label for="message">Message</label>
                    <textarea name="message" id="message" class="row required" required></textarea>
                </div>
                <div class="row space-bottom-15">
                    <button type="button" class="btn btn-default btn-contact pull-right" disabled><i class="fas fa-paper-plane fa-fw"></i> Send</button>
                </div>
                <input type="text" name="red_herring" class="red-herring">
            </form>
        </div>
    </div>
</div>
<script type="text/javascript">

$('.contact-form').validator({
    checkEmailTaken : false,
    formButton : '.btn-contact'
});

$('.contact-form').on('click', '.btn-contact', function() {
    $.ajax({
        url: '/contact/validate',
        type: 'post',
        data: $('input, textarea').serialize(),
        success: function(response, status, xhr) {
            if ($.trim(response)) {
                var data = JSON.parse(response);
                $('.alert-area').html('<div class="alert ' + data.alert + '"><strong>' + data.alert + '!</strong> ' + data.message + ' <button type="button" class="alert-close"><i class="fas fa-times fa-fw"></i></button>');
            }
        }, 
        complete: function() {
            Common.btn.prop('disabled', false).html(Common.btnhtml);
            $('html, body').animate( {
                scrollTop: 0
            }, 300);    
        }
    });
});

</script>